…
   ```
   
   Translation of the cylinder number to its text value with `exchange()` is straightforward:
   
   ```r
   
   ## for data frame/tibble
   
   exchange(my_cars,
           variable = 'cyl',
           dict = cyl_reco,
           key = 'cyl',
           value = 'cyl_lab')

# A tibble: 32 × 10
   cars                mpg cyl          disp    hp  drat    wt  qsec  gear  carb
   <chr>             <dbl> <chr>       <dbl> <dbl> <dbl> <dbl> <dbl> <dbl> <dbl>
 1 Mazda RX4          21   6-cylinder   160    110  3.9   2.62  16.5     4     4
 2 Mazda RX4 Wag      21   6-cylinder   160    110  3.9   2.88  17.0     4     4
 3 Datsun 710         22.8 4-cylinder   108     93  3.85  2.32  18.6     4     1
 4 Hornet 4 Drive     21.4 6-cylinder   258    110  3.08  3.22  19.4     3     1
 5 Hornet Sportabout  18.7 6+ cylinder  360    175  3.15  3.44  17.0     3     2
 6 Valiant            18.1 6-cylinder   225    105  2.76  3.46  20.2     3     1
 7 Duster 360         14.3 6+ cylinder  360    245  3.21  3.57  15.8     3     4
 8 Merc 240D          24.4 4-cylinder   147.    62  3.69  3.19  20       4     2
 9 Merc 230           22.8 4-cylinder   141.    95  3.92  3.15  22.9     4     2
10 Merc 280           19.2 6-cylinder   168.   123  3.92  3.44  18.3     4     4
# … with 22 more rows
# ℹ Use `print(n = ...)` to see more rows
…
$C
     [,1]          [,2]         
[1,] "6+-cylinder" "6+ cylinder"
[2,] "4-cylinder"  "6+-cylinder"
[3,] "6+ cylinder" "6+-cylinder"
[4,] "6+-cylinder" "4-cylinder" 
[5,] "6+-cylinder" "6+ cylinder"
[6,] "4-cylinder"  "6+-cylinder"

$D
# A tibble: 32 × 10
   cars                mpg cyl          disp    hp  drat    wt  qsec  gear  carb
   <chr>             <dbl> <chr>       <dbl> <dbl> <dbl> <dbl> <dbl> <dbl> <dbl>
 1 Mazda RX4          21   6-cylinder   160    110  3.9   2.62  16.5     4     4
 2 Mazda RX4 Wag      21   6-cylinder   160    110  3.9   2.88  17.0     4     4
 3 Datsun 710         22.8 4-cylinder   108     93  3.85  2.32  18.6     4     1
 4 Hornet 4 Drive     21.4 6-cylinder   258    110  3.08  3.22  19.4     3     1
 5 Hornet Sportabout  18.7 6+ cylinder  360    175  3.15  3.44  17.0     3     2
 6 Valiant            18.1 6-cylinder   225    105  2.76  3.46  20.2     3     1
 7 Duster 360         14.3 6+ cylinder  360    245  3.21  3.57  15.8     3     4
 8 Merc 240D          24.4 4-cylinder   147.    62  3.69  3.19  20       4     2
 9 Merc 230           22.8 4-cylinder   141.    95  3.92  3.15  22.9     4     2
10 Merc 280           19.2 6-cylinder   168.   123  3.92  3.44  18.3     4     4
# … with 22 more rows
# ℹ Use `print(n = ...)` to see more rows
…
$B
 [1] 8 7 2 7 8 2 8 5 5 1 3 3 1 4 1 3 6 6 4 3

$C
     [,1] [,2]
[1,]   12    8
[2,]    4   10
[3,]    8   12
[4,]   10    4
[5,]   12    8
[6,]    4   10

$D
# A tibble: 32 × 10
   cars                mpg   cyl  disp    hp  drat    wt  qsec  gear  carb
   <chr>             <dbl> <dbl> <dbl> <dbl> <dbl> <dbl> <dbl> <dbl> <dbl>
 1 Mazda RX4          21       6  160    110  3.9   2.62  16.5     4     4
 2 Mazda RX4 Wag      21       6  160    110  3.9   2.88  17.0     4     4
 3 Datsun 710         22.8     4  108     93  3.85  2.32  18.6     4     1
 4 Hornet 4 Drive     21.4     6  258    110  3.08  3.22  19.4     3     1
 5 Hornet Sportabout  18.7     8  360    175  3.15  3.44  17.0     3     2
 6 Valiant            18.1     6  225    105  2.76  3.46  20.2     3     1
 7 Duster 360         14.3     8  360    245  3.21  3.57  15.8     3     4
 8 Merc 240D          24.4     4  147.    62  3.69  3.19  20       4     2
 9 Merc 230           22.8     4  141.    95  3.92  3.15  22.9     4     2
10 Merc 280           19.2     6  168.   123  3.92  3.44  18.3     4     4
# … with 22 more rows
# ℹ Use `print(n = ...)` to see more rows
…
  ## and stitch the list back to a data frame with 'compress()'
  
  my_cars %>%
    dlply('cyl') %>%
    compress(names_to = 'cyl') %>% 
    as_tibble
    
    # A tibble: 32 × 10
   cars             mpg cyl    disp    hp  drat    wt  qsec  gear  carb
   <chr>          <dbl> <chr> <dbl> <dbl> <dbl> <dbl> <dbl> <dbl> <dbl>
 1 Datsun 710      22.8 4     108      93  3.85  2.32  18.6     4     1
 2 Merc 240D       24.4 4     147.     62  3.69  3.19  20       4     2
 3 Merc 230        22.8 4     141.     95  3.92  3.15  22.9     4     2
 4 Fiat 128        32.4 4      78.7    66  4.08  2.2   19.5     4     1
 5 Honda Civic     30.4 4      75.7    52  4.93  1.62  18.5     4     2
 6 Toyota Corolla  33.9 4      71.1    65  4.22  1.84  19.9     4     1
 7 Toyota Corona   21.5 4     120.     97  3.7   2.46  20.0     3     1
 8 Fiat X1-9       27.3 4      79      66  4.08  1.94  18.9     4     1
 9 Porsche 914-2   26   4     120.     91  4.43  2.14  16.7     5     2
10 Lotus Europa    30.4 4      95.1   113  3.77  1.51  16.9     5     2
# … with 22 more rows
# ℹ Use `print(n = ...)` to see more rows
…
<details>
   <summary>Binding by rows</summary>
   
   ### Binding by rows
   
   The old R's `rbind()` is a true workhorse of tabular data manipulation. Yet, on occasions, `rbind()` is too strict: what about stitching two data frames with non-overlapping or partially overlapping variable sets? There are also situations when, `rbind()` is not strict enough, i.e. you intend to include in the result only the variables shared by both input data frames. For such tasks, `full_rbind()` and `inner_rbind()` are implemented, which take a broad range of arguments: vectors, matrices and data frames:
   
   ```r
   
   ## overlapping variable sets
   
   full_rbind(my_cars, my_cars2)
   
   # A tibble: 64 × 13
   cars                mpg   cyl  disp    hp  drat    wt  qsec  gear  carb    vs    am  ncap
 * <chr>             <dbl> <dbl> <dbl> <dbl> <dbl> <dbl> <dbl> <dbl> <dbl> <dbl> <dbl> <int>
 1 Mazda RX4          21       6  160    110  3.9   2.62  16.5     4     4    NA    NA    NA
 2 Mazda RX4 Wag      21       6  160    110  3.9   2.88  17.0     4     4    NA    NA    NA
 3 Datsun 710         22.8     4  108     93  3.85  2.32  18.6     4     1    NA    NA    NA
 4 Hornet 4 Drive     21.4     6  258    110  3.08  3.22  19.4     3     1    NA    NA    NA
 5 Hornet Sportabout  18.7     8  360    175  3.15  3.44  17.0     3     2    NA    NA    NA
 6 Valiant            18.1     6  225    105  2.76  3.46  20.2     3     1    NA    NA    NA
 7 Duster 360         14.3     8  360    245  3.21  3.57  15.8     3     4    NA    NA    NA
 8 Merc 240D          24.4     4  147.    62  3.69  3.19  20       4     2    NA    NA    NA
 9 Merc 230           22.8     4  141.    95  3.92  3.15  22.9     4     2    NA    NA    NA
10 Merc 280           19.2     6  168.   123  3.92  3.44  18.3     4     4    NA    NA    NA
# … with 54 more rows
# ℹ Use `print(n = ...)` to see more rows

inner_rbind(my_cars, my_cars2)

# A tibble: 64 × 9
     mpg   cyl  disp    hp  drat    wt  qsec  gear  carb
 * <dbl> <dbl> <dbl> <dbl> <dbl> <dbl> <dbl> <dbl> <dbl>
 1  21       6  160    110  3.9   2.62  16.5     4     4
 2  21       6  160    110  3.9   2.88  17.0     4     4
 3  22.8     4  108     93  3.85  2.32  18.6     4     1
 4  21.4     6  258    110  3.08  3.22  19.4     3     1
 5  18.7     8  360    175  3.15  3.44  17.0     3     2
 6  18.1     6  225    105  2.76  3.46  20.2     3     1
 7  14.3     8  360    245  3.21  3.57  15.8     3     4
 8  24.4     4  147.    62  3.69  3.19  20       4     2
 9  22.8     4  141.    95  3.92  3.15  22.9     4     2
10  19.2     6  168.   123  3.92  3.44  18.3     4     4
# … with 54 more rows
# ℹ Use `print(n = ...)` to see more rows

## non-overlapping variable sets

full_rbind(my_cars[1:3], my_cars[6:7])

# A tibble: 64 × 5
   cars                mpg   cyl  drat    wt
   <chr>             <dbl> <dbl> <dbl> <dbl>
 1 Mazda RX4          21       6    NA    NA
 2 Mazda RX4 Wag      21       6    NA    NA
 3 Datsun 710         22.8     4    NA    NA
 4 Hornet 4 Drive     21.4     6    NA    NA
 5 Hornet Sportabout  18.7     8    NA    NA
 6 Valiant            18.1     6    NA    NA
 7 Duster 360         14.3     8    NA    NA
 8 Merc 240D          24.4     4    NA    NA
 9 Merc 230           22.8     4    NA    NA
10 Merc 280           19.2     6    NA    NA
# … with 54 more rows
# ℹ Use `print(n = ...)` to see more rows
…
